com\ub\backend\article\menu\ArticleMenu.class
com\ub\backend\base\api\response\AuthResponse.class
com\ub\backend\base\routes\BaseApiRoutes.class
com\ub\backend\article\model\ArticleDoc.class
com\ub\backend\article\routes\ArticleClientRoute.class
com\ub\backend\article\routes\ArticleAdminRoutes.class
com\ub\backend\article\menu\ArticleAllMenu.class
com\ub\backend\base\api\response\FileResponse.class
com\ub\backend\base\controller\BaseApiController.class
com\ub\backend\article\controller\ArticleAdminController.class
com\ub\backend\article\repository\ArticleRepository.class
com\ub\backend\base\controller\BaseExceptionHandler.class
com\ub\backend\base\service\PictureApiService.class
com\ub\backend\article\controller\ArticleClientController.class
com\ub\backend\base\utils\RequestLangUtils.class
com\ub\backend\base\utils\LangUtils.class
com\ub\backend\article\menu\ArticleAddMenu.class
